{
    "MSFT": {
        "name": "Microsoft",
        "quantity": 40,
        "price": 220.0
    },
    "AAPL": {
        "name": "Apple",
        "quantity": 2,
        "price": 129.41
    },
    "FB": {
        "name": "Facebook",
        "quantity": 5,
        "price": 268.94
    },
    "GOOGL": {
        "name": "Google",
        "quantity": 5,
        "price": 1726.13
    },
    "INTC": {
        "name": "Intel",
        "quantity": 0,
        "price": 49.67
    },
    "CTSH": {
        "name": "Cognizant",
        "quantity": 5,
        "price": 79.65
    }
}