{
    "AAPL": {
        "c": 131.01,
        "h": 131.74,
        "l": 128.43,
        "o": 128.89,
        "pc": 129.41,
        "t": 1609891200
    },
    "MSFT": {
        "c": 217.9,
        "h": 218.52,
        "l": 215.7,
        "o": 217.26,
        "pc": 217.69,
        "t": 1609891200
    },
    "AMZN": {
        "c": 3218.51,
        "h": 3223.38,
        "l": 3165.06,
        "o": 3166.01,
        "pc": 3186.63,
        "t": 1609891200
    },
    "ZM": {
        "c": 360.83,
        "h": 365.01,
        "l": 349,
        "o": 360.39,
        "pc": 359.98,
        "t": 1609891200
    },
    "TSLA": {
        "c": 735.11,
        "h": 740.84,
        "l": 719.2,
        "o": 723.66,
        "pc": 729.77,
        "t": 1609891200
    },
    "NFLX": {
        "c": 520.8,
        "h": 526.78,
        "l": 515.89,
        "o": 521.55,
        "pc": 522.86,
        "t": 1609891200
    },
    "NVDA": {
        "c": 536.19,
        "h": 537.74,
        "l": 523.48,
        "o": 523.99,
        "pc": 524.54,
        "t": 1609891200
    },
    "CSCO": {
        "c": 43.98,
        "h": 44.07,
        "l": 43.38,
        "o": 43.68,
        "pc": 43.96,
        "t": 1609891200
    },
    "GOOGL": {
        "c": 1740.05,
        "h": 1746.83,
        "l": 1716.9,
        "o": 1725.09,
        "pc": 1726.13,
        "t": 1609891200
    },
    "FB": {
        "c": 270.97,
        "h": 272.4,
        "l": 268.2111,
        "o": 268.29,
        "pc": 268.94,
        "t": 1609891200
    },
    "INTC": {
        "c": 50.61,
        "h": 50.83,
        "l": 49.33,
        "o": 49.445,
        "pc": 49.67,
        "t": 1609891200
    },
    "EBAY": {
        "c": 52.03,
        "h": 52.28,
        "l": 51.06,
        "o": 51.3503,
        "pc": 51.5,
        "t": 1609891200
    },
    "CPRT": {
        "c": 120.13,
        "h": 121.57,
        "l": 118.45,
        "o": 120.32,
        "pc": 120.65,
        "t": 1609891200
    },
    "JD": {
        "c": 95.5,
        "h": 96.2,
        "l": 88.0803,
        "o": 88.15,
        "pc": 86.33,
        "t": 1609891200
    },
    "ADBE": {
        "c": 485.69,
        "h": 486.08,
        "l": 479.195,
        "o": 485.88,
        "pc": 485.34,
        "t": 1609891200
    },
    "ADSK": {
        "c": 301.7,
        "h": 302.511,
        "l": 296.54,
        "o": 297.84,
        "pc": 296.84,
        "t": 1609891200
    },
    "CTSH": {
        "c": 79.65,
        "h": 80.13,
        "l": 79.19,
        "o": 79.51,
        "pc": 79.42,
        "t": 1609891200
    },
    "INTU": {
        "c": 368.87,
        "h": 374,
        "l": 367.31,
        "o": 370.44,
        "pc": 371.7,
        "t": 1609891200
    },
    "PEP": {
        "c": 144.7,
        "h": 145.18,
        "l": 142.9,
        "o": 144.07,
        "pc": 144.27,
        "t": 1609891200
    },
    "PYPL": {
        "c": 234.91,
        "h": 235.64,
        "l": 229.8,
        "o": 230.47,
        "pc": 231.92,
        "t": 1609891200
    }
}